…
<!-- Basic table view.   -->


<!-- Basic graph view.   -->




```r
#What does data look like for variables that do not change with time?
ds %>% select_(.dots = variables_static) 
```

```
# A tibble: 117,151 x 9
      id   male birth_year birth_month   race hispanic cohort edu_years highest_degree
   <dbl> <fctr>      <dbl>       <dbl> <fctr>    <dbl> <fctr>     <dbl>          <dbl>
 1  3010    Men       1936           1  White        0    Hrs        12              2
 2  3010    Men       1936           1  White        0    Hrs        12              2
 3  3010    Men       1936           1  White        0    Hrs        12              2
 4  3010    Men       1936           1  White        0    Hrs        12              2
 5  3010    Men       1936           1  White        0    Hrs        12              2
 6  3020  Women       1938           9  White        0    Hrs        16              5
 7  3020  Women       1938           9  White        0    Hrs        16              5
 8  3020  Women       1938           9  White        0    Hrs        16              5
 9  3020  Women       1938           9  White        0    Hrs        16              5
10  3020  Women       1938           9  White        0    Hrs        16              5
# ... with 117,141 more rows
```
…
```
# A tibble: 1 x 1
      n
  <int>
1 28225
```

```r
ds %>% group_by(id) %>% summarize(n=n())
```

```
# A tibble: 28,225 x 2
         id     n
      <dbl> <int>
 1     3010     5
 2     3020     6
 3 10001010     6
 4 10003030     6
 5 10004010     4
 6 10004040     6
 7 10013010     6
 8 10013040     6
 9 10038010     6
10 10038040     6
# ... with 28,215 more rows
```
…
