…
```r
#Are there any individuals where the spouse has changed?
test <- ds %>% 
  dplyr::group_by(id) %>% 
  dplyr::mutate(
    firstspouse = dplyr::first(shhidpnr),
    flag = ifelse(all(shhidpnr== firstspouse | shhidpnr==0, na.rm = T), 0, 1)
  ) 
test %>% 
 select(id, year,shhidpnr,flag, spouse_memory_disease_pattern) %>% 
  dplyr::filter(flag==1)
```

```
Source: local data frame [114 x 5]
Groups: id [19]

         id   year shhidpnr  flag spouse_memory_disease_pattern
      <dbl> <fctr>    <dbl> <dbl>                         <chr>
1  16935010   2004        0     1                      NA0011NA
2  16935010   2006 16935011     1                      NA0011NA
3  16935010   2008 16935011     1                      NA0011NA
4  16935010   2010 16935011     1                      NA0011NA
5  16935010   2012 16935011     1                      NA0011NA
6  16935010   2014        0     1                      NA0011NA
7  18212010   2004        0     1                      NANA1111
8  18212010   2006        0     1                      NANA1111
9  18212010   2008 18212011     1                      NANA1111
10 18212010   2010 18212011     1                      NANA1111
# ... with 104 more rows
```

```r
#What does data look like for variables that do not change with time?
ds %>% select_(.dots = variables_static) 
```

```
# A tibble: 4,626 × 9
         id   male birth_year birth_month   race hispanic cohort edu_years highest_degree
      <dbl> <fctr>      <dbl>       <dbl> <fctr>    <dbl> <fctr>     <dbl>          <dbl>
1      3020  Woman       1938           9  White        0    Hrs        16              5
2      3020  Woman       1938           9  White        0    Hrs        16              5
3      3020  Woman       1938           9  White        0    Hrs        16              5
4      3020  Woman       1938           9  White        0    Hrs        16              5
5      3020  Woman       1938           9  White        0    Hrs        16              5
6      3020  Woman       1938           9  White        0    Hrs        16              5
7  10281020    Man       1934           8  Black        0    Hrs        11              0
8  10281020    Man       1934           8  Black        0    Hrs        11              0
9  10281020    Man       1934           8  Black        0    Hrs        11              0
10 10281020    Man       1934           8  Black        0    Hrs        11              0
# ... with 4,616 more rows
```
…
```
# A tibble: 1 × 1
      n
  <int>
1   771
```

```r
ds %>% group_by(id) %>% summarize(n=n())
```

```
# A tibble: 771 × 2
         id     n
      <dbl> <int>
1      3020     6
2  10281020     6
3  10397010     6
4  10989020     6
5  11071020     6
6  11379020     6
7  11626011     6
8  11671040     6
9  12276030     6
10 12292010     6
# ... with 761 more rows
```
…
